,Affinity
0,5.759052276611328
1,6.373251914978027
2,7.572365283966064
3,5.611584663391113
4,5.731130599975586
5,5.918513298034668
6,5.141178131103516
7,5.256662368774414
8,5.291483879089356
9,6.207504749298096
10,5.849398612976074
11,6.902169227600098
12,5.519030570983887
13,6.794475555419922
14,5.810410022735596
15,5.648386001586914
16,5.913218975067139
17,7.956953048706055
18,5.610517501831055
19,6.35833740234375
20,6.382354736328125
21,6.385923862457275
22,7.727174758911133
23,7.831267356872559
24,5.779682159423828
25,7.217357635498047
26,8.633190155029297
27,6.183133125305176
28,5.645532608032227
29,5.911151885986328
30,5.474780082702637
31,5.642934799194336
32,6.915048599243164
33,7.591171264648437
34,5.512833595275879
35,6.126613140106201
36,5.987646102905273
37,5.94564151763916
38,6.985033512115479
39,5.690774440765381
40,6.319511413574219
41,5.434454917907715
42,5.43721342086792
43,5.541502952575684
44,6.029332160949707
45,6.843717575073242
46,6.728796482086182
47,6.371583938598633
48,6.118660926818848
49,5.017472267150879
50,6.426315307617188
51,6.019647121429443
52,6.282682418823242
53,7.910408973693848
54,9.551660537719728
55,5.795310497283936
56,5.928068161010742
57,6.658801078796387
58,6.555385589599609
59,6.649574279785156
60,6.647119998931885
61,7.299223899841309
62,7.057404518127441
63,6.551822662353516
64,8.186452865600586
65,6.319981575012207
66,5.307984828948975
67,5.222442626953125
68,6.438103675842285
69,5.1824951171875
70,5.767570495605469
71,5.7322282791137695
72,6.574597358703613
73,5.849960803985596
74,6.034774303436279
75,5.830277919769287
76,5.768881797790527
77,5.869709968566895
78,8.53923225402832
79,8.53923225402832
80,7.803304195404053
81,5.156096935272217
82,5.300721645355225
83,6.349736213684082
84,5.949334144592285
85,5.562218189239502
86,6.598769664764404
87,7.572365283966064
88,7.572365283966064
89,6.444094657897949
90,6.385522365570068
91,5.657235145568848
92,7.802585601806641
93,7.348222732543945
94,5.321427345275879
95,5.542198181152344
96,7.164976119995117
97,6.3716912269592285
98,6.167848110198975
99,
100,9.551660537719728
101,7.539212703704834
102,6.694201469421387
103,6.045818328857422
104,5.961444854736328
105,5.216382026672363
106,5.196346282958984
107,
108,5.971502304077148
109,7.012042999267578
110,5.156276702880859
111,7.727174758911133
112,5.275076866149902
113,6.628873825073242
114,5.354946613311768
115,5.404979228973389
116,7.494587898254394
117,5.139107704162598
118,5.349576950073242
119,5.751814842224121
120,5.725645542144775
121,6.032550811767578
122,8.71771240234375
123,5.595959186553955
124,6.891942024230957
125,9.64784049987793
126,6.799561023712158
127,5.621358871459961
128,5.8028717041015625
129,7.239104747772217
130,7.841343402862549
131,6.561080455780029
132,6.055890083312988
133,5.45352840423584
134,7.277107238769531
135,5.371083736419678
136,6.574297904968262
137,7.993712425231934
138,7.057404518127441
139,5.376748561859131
140,5.590347290039063
141,7.239143848419189
142,7.474738121032715
143,5.4616475105285645
144,5.68341064453125
145,6.090363502502441
146,7.268523216247559
147,6.146920204162598
148,5.347747802734375
149,5.626672744750977
150,5.865546226501465
151,6.760786533355713
152,7.102360725402832
153,5.696145057678223
154,5.6343607902526855
155,5.124936103820801
156,6.930832386016846
157,6.108262062072754
158,7.399972915649414
159,5.418829441070557
160,5.08495044708252
161,6.545393466949463
162,6.527511596679688
163,6.2008490562438965
164,5.390064239501953
165,6.187633514404297
166,9.257451057434082
167,5.216835498809815
168,7.434089660644531
169,6.647486686706543
170,6.709277153015137
171,6.109731674194336
172,7.666891098022461
173,6.535050392150879
174,7.265581130981445
175,6.731727600097656
176,5.854987144470215
177,5.350520133972168
178,5.342556953430176
179,6.117029190063477
180,5.535909175872803
181,
182,8.01591968536377
183,6.4365010261535645
184,6.002187252044678
185,5.580123901367188
186,6.0782470703125
187,5.9828691482543945
188,5.194622039794922
189,5.772525787353516
190,6.896900653839111
191,5.805947303771973
192,5.633784294128418
193,6.230412483215332
194,6.999659538269043
195,6.7159833908081055
196,5.616671085357666
197,5.586811065673828
198,6.8340582847595215
199,5.051055908203125
200,6.649574279785156
201,6.293039321899414
202,7.067190647125244
203,5.539287567138672
204,8.009525299072266
205,7.299223899841309
206,6.377664089202881
207,6.375725746154785
208,5.793057441711426
209,7.279775142669678
210,5.653055191040039
211,6.055525302886963
212,4.917326927185059
213,5.556454658508301
214,5.7168869972229
215,5.585307121276856
216,6.367982387542725
217,5.10394287109375
218,6.891567707061768
219,5.05104923248291
220,5.014931201934815
221,4.972262859344482
222,4.666356086730957
223,5.418829441070557
224,6.598361015319824
225,6.808060646057129
226,6.127276420593262
227,4.834918975830078
228,6.342680931091309
229,6.76479959487915
230,
231,6.194888114929199
232,5.472387790679932
233,5.8558430671691895
234,5.199699401855469
235,6.710109233856201
236,5.29409122467041
237,5.952750205993652
238,5.236595153808594
239,7.148716926574707
240,6.242876052856445
241,5.457057952880859
242,5.077886581420898
243,6.437498569488525
244,6.629324913024902
245,5.540518760681152
246,6.55916690826416
247,6.419583797454834
248,5.989049911499023
249,5.767297744750977
250,5.363857269287109
251,6.155281066894531
252,8.77859115600586
253,5.8101887702941895
254,5.689785003662109
255,5.739169597625732
256,5.567774772644043
257,9.03690242767334
258,6.155723571777344
259,5.331714630126953
260,6.245318412780762
261,7.691926002502441
262,6.297142028808594
263,5.569089889526367
264,5.97348690032959
265,5.550878524780273
266,7.831267356872559
267,6.976740837097168
268,5.927736282348633
269,6.057795524597168
270,6.762978553771973
271,8.743610382080078
272,6.455469131469727
273,6.3251953125
274,5.577232360839844
275,7.8197922706604
276,6.458234786987305
277,6.974011421203613
278,6.318130493164063
279,5.56709098815918
280,7.966056823730469
281,6.841785430908203
282,5.64316463470459
283,8.074655532836914
284,4.856353282928467
285,5.495983123779297
286,5.465872287750244
287,5.542414665222168
288,9.33913803100586
289,6.952215194702148
290,5.897006511688232
291,5.197590827941895
292,6.386664390563965
293,5.759199142456055
294,5.4924163818359375
295,4.831676483154297
296,5.64284086227417
297,5.175954818725586
298,
299,6.941508293151856
300,5.895912170410156
301,4.988546848297119
302,7.542232513427734
303,5.827138900756836
304,5.630390644073486
305,5.926876544952393
306,4.995809555053711
307,6.298015594482422
308,7.545151710510254
309,5.126408576965332
310,5.843201637268066
311,6.760695457458496
312,7.296815872192383
313,5.596909523010254
314,8.277389526367188
315,5.5850019454956055
316,5.596909523010254
317,5.483800888061523
318,6.515110969543457
319,5.521087646484375
320,5.520812034606934
321,5.515193939208984
322,5.849960803985596
323,6.367982387542725
324,6.035930633544922
325,6.921608924865723
326,6.825169086456299
327,8.371137619018555
328,8.181354522705078
329,8.53923225402832
330,5.489591598510742
331,6.140556812286377
332,5.898780822753906
333,6.408700942993164
334,7.062623500823975
335,5.55507230758667
336,5.525774955749512
337,7.6298089027404785
338,5.355192184448242
339,6.3956828117370605
340,5.985384941101074
341,5.554720878601074
342,6.103055000305176
343,6.301124095916748
344,6.5703535079956055
345,5.800724983215332
346,7.674727439880371
347,7.910408973693848
348,5.7122297286987305
349,5.687946319580078
350,6.12458610534668
351,6.086905479431152
352,5.507721424102783
353,5.844281196594238
354,5.298384189605713
355,6.767953872680664
356,7.831267356872559
357,5.837483882904053
358,6.181756973266602
359,6.733007431030273
360,6.192557334899902
361,5.259978294372559
362,5.849960803985596
363,5.746726989746094
364,5.793057441711426
365,5.713635444641113
366,5.797600269317627
367,5.024064064025879
368,7.230235576629639
369,6.107644081115723
370,6.188096046447754
371,5.920022010803223
372,7.8794755935668945
373,5.734352111816406
374,5.806489944458008
375,7.470571994781494
376,6.4421586990356445
377,6.277310371398926
378,6.518364906311035
379,6.214502334594727
380,5.349981784820557
381,5.325201511383057
382,5.99962329864502
383,7.720541000366211
384,5.165021896362305
385,5.778125762939453
386,5.722493171691895
387,8.48087215423584
388,4.972517967224121
389,8.503745079040527
390,7.146997928619385
391,4.943948745727539
392,6.974011421203613
393,7.299223899841309
394,5.677944183349609
395,5.077886581420898
396,6.8221435546875
397,5.973516941070557
398,5.874789237976074
399,5.501638412475586
400,7.374263763427734
401,8.399081230163574
402,5.791911602020264
403,5.21122932434082
404,4.856342315673828
405,6.236659049987793
406,5.551862239837647
407,6.9617767333984375
408,5.587843894958496
409,6.905357360839844
410,5.699794769287109
411,5.969813346862793
412,7.163308620452881
413,5.802445411682129
414,7.980488300323486
415,6.862016201019287
416,5.032179832458496
417,5.605975151062012
418,5.5829596519470215
419,6.319341659545898
420,4.936797142028809
421,9.03690242767334
422,7.310245990753174
423,4.817072868347168
424,6.014328956604004
425,5.699358940124512
426,5.991832256317139
427,6.573320865631104
428,5.854317665100098
429,4.837791442871094
430,5.1814284324646
431,6.081601619720459
432,5.367318630218506
433,5.002388000488281
434,7.727174758911133
435,6.073532581329346
436,5.520750522613525
437,5.194324493408203
438,5.637569427490234
439,6.489968299865723
440,6.153297424316406
441,4.911757469177246
442,5.700189590454102
443,7.188712120056152
444,7.614263534545898
445,5.622382164001465
446,7.165977954864502
447,6.537942886352539
448,4.836043834686279
449,7.727174758911133
450,6.743947982788086
451,4.873305797576904
452,7.150908470153809
453,5.626830101013184
454,5.503503799438477
455,7.574124336242676
456,5.275076866149902
457,10.184797286987305
458,6.623403549194336
459,6.227368354797363
460,5.395909309387207
461,6.652583122253418
462,5.955691337585449
463,6.952215194702148
464,6.316314220428467
465,6.039338111877441
466,5.630078315734863
467,6.64088773727417
468,5.672000885009766
469,5.917600631713867
470,5.611829280853272
471,6.380398750305176
472,5.485145568847656
473,7.748710155487059
474,6.406167984008789
475,7.349793910980225
476,6.29128885269165
477,5.959808349609375
478,5.643074035644531
479,6.723031044006348
480,6.40672779083252
481,6.295966148376465
482,5.45074987411499
483,6.709277153015137
484,6.461686134338379
485,5.974103927612305
486,5.625511169433594
487,5.857710838317871
488,5.253252983093262
489,5.693881988525391
490,8.076522827148438
491,5.029916286468506
492,5.760446548461914
493,6.284520149230957
494,5.596909523010254
495,6.744053840637207
496,5.346027374267578
497,5.204345703125
498,6.540200233459473
499,6.658867835998535
500,5.664393424987793
501,6.569222450256348
502,5.669985294342041
503,6.434929370880127
504,5.221872329711914
505,5.955949783325195
506,6.051820755004883
507,5.2177019119262695
508,6.502416610717773
509,7.844044208526611
510,5.418829441070557
511,7.8858160972595215
512,5.862724304199219
513,6.582188606262207
514,6.256932735443115
515,5.525955677032471
516,6.182317733764648
517,5.714244842529297
518,5.400262832641602
519,5.997828483581543
520,8.143348693847656
521,5.621318340301514
522,5.915999412536621
523,6.674374103546143
524,5.9783854484558105
525,6.970005035400391
526,6.189058780670166
527,6.371980667114258
528,8.81032943725586
529,6.01084566116333
530,5.630741119384766
531,6.126383304595947
532,5.426451206207275
533,5.259815216064453
534,6.191911697387695
535,5.578439712524414
536,5.393851280212402
537,6.081479549407959
538,6.683952808380127
539,5.400481224060059
540,6.445463180541992
541,5.755335807800293
542,7.707589626312256
543,7.606912612915039
544,5.134042739868164
545,5.816919326782227
546,5.805361747741699
547,6.583106994628906
548,5.82564640045166
549,8.909933090209961
550,6.1747026443481445
551,6.647486686706543
552,5.365340709686279
553,6.094764232635498
554,8.9630126953125
555,6.329775810241699
556,7.299223899841309
557,4.815860271453857
558,5.2623066902160645
559,8.154850959777832
560,5.7642107009887695
561,5.622634410858154
562,5.447238445281982
563,6.00182580947876
564,8.70289421081543
565,5.3381781578063965
566,4.99901008605957
567,6.386916160583496
568,6.060245513916016
569,5.38809871673584
570,5.782278060913086
571,5.820671558380127
572,5.676440238952637
573,6.492114543914795
574,5.693881988525391
575,4.605053424835205
576,7.868185043334961
577,6.105922698974609
578,5.837387561798096
579,6.566531181335449
580,8.2874174118042
581,4.950748920440674
582,6.400539398193359
583,5.2623066902160645
584,6.290859222412109
585,6.111936569213867
586,5.217823028564453
587,5.991832256317139
588,7.239143848419189
589,6.407750129699707
590,7.580286026000977
591,5.526969909667969
592,5.946964263916016
593,6.123410224914551
594,5.737781047821045
595,6.974011421203613
596,5.375129222869873
597,6.999637603759766
598,6.713912963867188
599,5.991832256317139
600,9.891457557678224
601,6.015326976776123
602,4.967267990112305
603,6.97910213470459
604,8.2874174118042
605,7.234377384185791
606,5.569413185119629
607,5.738772392272949
608,9.25922393798828
609,8.181354522705078
610,5.477980136871338
611,7.4664130210876465
612,5.882568359375
613,5.149667739868164
614,8.247068405151367
615,5.664934158325195
616,5.623749732971191
617,6.384519577026367
618,5.344663143157959
619,6.067065238952637
620,5.553122997283936
621,6.501855850219727
622,6.045840263366699
623,6.096223831176758
624,5.213122367858887
625,5.179356098175049
626,5.325201511383057
627,5.496394157409668
628,5.592568397521973
629,6.800227165222168
630,5.734254837036133
631,5.9188432693481445
632,5.307984828948975
633,6.425278663635254
634,5.341675758361816
635,6.198398590087891
636,6.825169086456299
637,5.880398750305176
638,6.986748218536377
639,6.015117168426514
640,6.367982387542725
641,6.191911697387695
642,10.184797286987305
643,5.338222503662109
644,6.311371326446533
645,5.489478588104248
646,6.65233325958252
647,6.212162971496582
648,5.92352294921875
649,5.2764410972595215
650,5.949141502380371
651,6.009271621704102
652,8.421731948852539
653,5.684183597564697
654,7.012042999267578
655,5.270088195800781
656,5.689543724060059
657,6.480587005615234
658,6.952215194702148
659,5.193282604217529
660,5.718262195587158
661,6.097350120544434
662,5.350337982177734
663,5.55686092376709
664,7.394197940826416
665,7.782195091247559
666,5.865866661071777
667,6.17061185836792
668,5.519865036010742
669,5.86646032333374
670,5.795544624328613
671,6.363837242126465
672,6.364528656005859
673,5.700974464416504
674,5.264969825744629
675,5.17681360244751
676,7.431703567504883
677,5.645209312438965
678,5.6742753982543945
679,5.770414352416992
680,5.417827606201172
681,5.524355888366699
682,5.594207763671875
683,6.273715972900391
684,7.590640068054199
685,5.800670623779297
686,
687,5.424123764038086
688,5.711785316467285
689,6.573734283447266
690,5.577068328857422
691,5.34256649017334
692,6.731727600097656
693,6.434929370880127
694,5.782278060913086
695,6.772344589233398
696,5.510343551635742
697,5.78084659576416
698,4.991498947143555
699,6.529576301574707
700,5.400279998779297
701,8.81032943725586
702,6.441941261291504
703,5.1584906578063965
704,5.468973159790039
705,6.349631309509277
706,5.744335174560547
707,6.6649169921875
708,8.743610382080078
709,6.843575954437256
710,6.1626973152160645
711,5.260457992553711
712,5.958178520202637
713,7.500029563903809
714,5.901886940002441
715,6.197689533233643
716,5.500842094421387
717,5.723135948181152
718,6.214415550231934
719,5.973649978637695
720,5.374020576477051
721,5.398839950561523
722,5.128399848937988
723,4.772180557250977
724,6.501623153686523
725,5.534584045410156
726,7.057404518127441
727,5.491466999053955
728,6.450924873352051
729,7.744595527648926
730,5.505314826965332
731,5.398704528808594
732,5.587543487548828
733,5.857206344604492
734,5.692673206329346
735,6.3641767501831055
736,5.845005035400391
737,7.448444366455078
738,5.680109977722168
739,7.349579811096191
740,5.92018985748291
741,5.060850143432617
742,5.694667339324951
743,6.015442848205566
744,8.225452423095703
745,6.463432312011719
746,5.865211486816406
747,6.94700813293457
748,6.063142776489258
749,8.186452865600586
750,6.167521953582764
751,7.023980140686035
752,5.545564651489258
753,6.350179672241211
754,5.382501125335693
755,5.862046241760254
756,5.410279273986816
757,6.7914228439331055
758,5.692591190338135
759,5.449124813079834
760,6.404452323913574
761,7.057404518127441
762,6.493252277374268
763,6.343008995056152
764,
765,5.914294242858887
766,5.770259857177734
767,5.446807861328125
768,5.261897087097168
769,8.81032943725586
770,5.55649471282959
771,6.121372222900391
772,6.494219779968262
773,6.647486686706543
774,5.055823802947998
775,5.390159606933594
776,7.696276187896728
777,7.572365283966064
778,5.584506988525391
779,6.006561756134033
780,5.630223274230957
781,5.820405960083008
782,7.706862926483154
783,5.534213066101074
784,5.393303871154785
785,8.029865264892578
786,5.502902507781982
787,6.144567012786865
788,5.301230430603027
789,6.256094932556152
790,5.24735164642334
791,5.752904415130615
792,5.1398138999938965
793,5.473587512969971
794,5.513598442077637
795,5.211738586425781
796,6.686717510223389
797,5.783145904541016
798,6.509574890136719
799,5.4763665199279785
800,6.053882598876953
801,7.574124336242676
802,6.328734397888184
803,4.509395122528076
804,6.601103782653809
805,5.460388660430908
806,6.443281173706055
807,5.744802474975586
808,7.2985992431640625
809,5.203367233276367
810,5.47883415222168
811,7.731809616088867
812,5.841972827911377
813,5.307984828948975
814,5.816576480865479
815,7.2444047927856445
816,5.2623066902160645
817,5.06998348236084
818,6.027953147888184
819,7.727174758911133
820,6.926849842071533
821,5.322133541107178
822,5.865889549255371
823,5.541502952575684
824,5.213290214538574
825,5.736089706420898
826,7.034054756164551
827,5.423160552978516
828,5.8226470947265625
829,6.102977752685547
830,5.480772018432617
831,5.925421714782715
832,5.355511665344238
833,5.1584906578063965
834,7.572365283966064
835,5.460019111633301
836,5.7413411140441895
837,5.534952163696289
838,5.686277389526367
839,5.92075252532959
840,6.1925950050354
841,5.66011905670166
842,6.442176818847656
843,5.407829284667969
844,5.63123893737793
845,9.64784049987793
846,6.825425624847412
847,6.18295431137085
848,5.617444038391113
849,6.121701240539551
850,5.120344161987305
851,5.426716327667236
852,5.536938190460205
853,6.274969577789307
854,7.1808013916015625
855,5.349262237548828
856,6.369128227233887
857,6.540200233459473
858,5.074472427368164
859,5.321964740753174
860,6.071376800537109
861,5.378503799438477
862,5.992220878601074
863,5.620752334594727
864,6.319341659545898
865,4.690410614013672
866,5.399542808532715
867,5.90379524230957
868,5.337315559387207
869,5.843600273132324
870,5.6458024978637695
871,5.541502952575684
872,6.189674377441406
873,6.092480659484863
874,5.507638931274414
875,6.23586368560791
876,7.119627952575684
877,5.790067672729492
878,5.792664527893066
879,5.0553154945373535
880,5.354812145233154
881,6.3492279052734375
882,6.570688247680664
883,8.308156967163086
884,5.551689624786377
885,6.046391487121582
886,5.76622200012207
887,6.767150402069092
888,5.350266933441162
889,5.6742753982543945
890,5.290367126464844
891,6.4019775390625
892,6.451986789703369
893,5.446433067321777
894,6.764895439147949
895,8.48456859588623
896,5.619534969329834
897,6.031537055969238
898,6.4680585861206055
899,6.6717529296875
900,5.354946613311768
901,6.857976913452148
902,6.214807033538818
903,5.178717613220215
904,5.872973918914795
905,5.865182876586914
906,5.254324913024902
907,7.678807735443115
908,5.927467346191406
909,7.184771537780762
910,5.838344573974609
911,
912,
